Task_1A/t1a_fs_pwm/simulation/qsim/t1a_fs_pwm.msim.vcd
$comment
	File created using the following command:
		vcd file t1a_fs_pwm.msim.vcd -direction
$end
$date
	Sat Oct 14 20:33:59 2023
$end
$version
	ModelSim Version 2020.1
$end
$timescale
	1ps
$end

$scope module t1a_fs_pwm_bdf_vlg_vec_tst $end
$var reg 1 ! clk_50M $end
$var reg 4 " duty_cycle [3:0] $end
$var wire 1 # clk_195KHz $end
$var wire 1 $ clk_3125KHz $end
$var wire 1 % pwm_signal $end

$scope module i1 $end
$var wire 1 & gnd $end
$var wire 1 ' vcc $end
$var wire 1 ( unknown $end
$var tri1 1 ) devclrn $end
$var tri1 1 * devpor $end
$var tri1 1 + devoe $end
$var wire 1 , pwm_signal~output_o $end
$var wire 1 - clk_195KHz~output_o $end
$var wire 1 . clk_3125KHz~output_o $end
$var wire 1 / clk_50M~input_o $end
$var wire 1 0 clk_50M~inputclkctrl_outclk $end
$var wire 1 1 b2v_inst|counter[0]~2_combout $end
$var wire 1 2 b2v_inst|counter[1]~0_combout $end
$var wire 1 3 b2v_inst|counter[2]~1_combout $end
$var wire 1 4 b2v_inst|clk_3125KHz~0_combout $end
$var wire 1 5 b2v_inst|clk_3125KHz~feeder_combout $end
$var wire 1 6 b2v_inst|clk_3125KHz~q $end
$var wire 1 7 b2v_inst|clk_3125KHz~clkctrl_outclk $end
$var wire 1 8 b2v_inst1|counter_duty[0]~3_combout $end
$var wire 1 9 b2v_inst1|counter_duty[1]~2_combout $end
$var wire 1 : b2v_inst1|counter_duty[2]~1_combout $end
$var wire 1 ; b2v_inst1|counter_duty[3]~0_combout $end
$var wire 1 < duty_cycle[3]~input_o $end
$var wire 1 = duty_cycle[2]~input_o $end
$var wire 1 > duty_cycle[1]~input_o $end
$var wire 1 ? duty_cycle[0]~input_o $end
$var wire 1 @ b2v_inst1|LessThan0~0_combout $end
$var wire 1 A b2v_inst1|LessThan0~1_combout $end
$var wire 1 B b2v_inst1|LessThan0~2_combout $end
$var wire 1 C b2v_inst1|pwm_signal~q $end
$var wire 1 D b2v_inst1|clk_195KHz~0_combout $end
$var wire 1 E b2v_inst1|clk_195KHz~q $end
$var wire 1 F b2v_inst|counter [2] $end
$var wire 1 G b2v_inst|counter [1] $end
$var wire 1 H b2v_inst|counter [0] $end
$var wire 1 I b2v_inst1|counter_duty [3] $end
$var wire 1 J b2v_inst1|counter_duty [2] $end
$var wire 1 K b2v_inst1|counter_duty [1] $end
$var wire 1 L b2v_inst1|counter_duty [0] $end
$upscope $end
$upscope $end
$enddefinitions $end
#0
$dumpvars
0!
b111 "
0#
0$
1%
0&
1'
x(
1)
1*
1+
1,
0-
0.
0/
00
11
02
03
14
15
06
07
18
09
0:
0;
0<
1=
1>
1?
1@
1A
0B
0C
1D
0E
0H
0G
0F
0L
0K
0J
0I
$end
#10000
1!
1/
10
1H
16
17
1.
1$
12
01
1L
1E
1-
1#
19
08
#20000
0!
0/
00
#30000
1!
1/
10
1G
0H
11
#40000
0!
0/
00
#50000
1!
1/
10
1H
13
02
01
#60000
0!
0/
00
#70000
1!
1/
10
1F
0G
0H
11
#80000
0!
0/
00
#90000
1!
1/
10
1H
12
01
#100000
0!
0/
00
#110000
1!
1/
10
1G
0H
11
#120000
0!
0/
00
#130000
1!
1/
10
1H
03
02
01
#140000
0!
0/
00
#150000
1!
1/
10
0F
0G
0H
04
11
05
#160000
0!
0/
00
#170000
1!
1/
10
1H
06
07
0.
0$
12
01
#180000
0!
0/
00
#190000
1!
1/
10
1G
0H
11
#200000
0!
0/
00
#210000
1!
1/
10
1H
13
02
01
#220000
0!
0/
00
#230000
1!
1/
10
1F
0G
0H
11
#240000
0!
0/
00
#250000
1!
1/
10
1H
12
01
#260000
0!
0/
00
#270000
1!
1/
10
1G
0H
11
#280000
0!
0/
00
#290000
1!
1/
10
1H
03
02
01
#300000
0!
0/
00
#310000
1!
1/
10
0F
0G
0H
14
11
15
#320000
0!
0/
00
#330000
1!
1/
10
1H
16
17
1.
1$
12
01
1K
0L
18
#340000
0!
0/
00
#350000
1!
1/
10
1G
0H
11
#360000
0!
0/
00
#370000
1!
1/
10
1H
13
02
01
#380000
0!
0/
00
#390000
1!
1/
10
1F
0G
0H
11
#400000
0!
0/
00
#410000
1!
1/
10
1H
12
01
#420000
0!
0/
00
#430000
1!
1/
10
1G
0H
11
#440000
0!
0/
00
#450000
1!
1/
10
1H
03
02
01
#460000
0!
0/
00
#470000
1!
1/
10
0F
0G
0H
04
11
05
#480000
0!
0/
00
#490000
1!
1/
10
1H
06
07
0.
0$
12
01
#500000
0!
0/
00
#510000
1!
1/
10
1G
0H
11
#520000
0!
0/
00
#530000
1!
1/
10
1H
13
02
01
#540000
0!
0/
00
#550000
1!
1/
10
1F
0G
0H
11
#560000
0!
0/
00
#570000
1!
1/
10
1H
12
01
#580000
0!
0/
00
#590000
1!
1/
10
1G
0H
11
#600000
0!
0/
00
#610000
1!
1/
10
1H
03
02
01
#620000
0!
0/
00
#630000
1!
1/
10
0F
0G
0H
14
11
15
#640000
0!
0/
00
#650000
1!
1/
10
1H
16
17
1.
1$
12
01
1L
0@
1:
09
08
#660000
0!
0/
00
#670000
1!
1/
10
1G
0H
11
#680000
0!
0/
00
#690000
1!
1/
10
1H
13
02
01
#700000
0!
0/
00
#710000
1!
1/
10
1F
0G
0H
11
#720000
0!
0/
00
#730000
1!
1/
10
1H
12
01
#740000
0!
0/
00
#750000
1!
1/
10
1G
0H
11
#760000
0!
0/
00
#770000
1!
1/
10
1H
03
02
01
#780000
0!
0/
00
#790000
1!
1/
10
0F
0G
0H
04
11
05
#800000
0!
0/
00
#810000
1!
1/
10
1H
06
07
0.
0$
12
01
#820000
0!
0/
00
#830000
1!
1/
10
1G
0H
11
#840000
0!
0/
00
#850000
1!
1/
10
1H
13
02
01
#860000
0!
0/
00
#870000
1!
1/
10
1F
0G
0H
11
#880000
0!
0/
00
#890000
1!
1/
10
1H
12
01
#900000
0!
0/
00
#910000
1!
1/
10
1G
0H
11
#920000
0!
0/
00
#930000
1!
1/
10
1H
03
02
01
#940000
0!
0/
00
#950000
1!
1/
10
0F
0G
0H
14
11
15
#960000
0!
0/
00
#970000
1!
1/
10
1H
16
17
1.
1$
12
01
1J
0K
0L
0A
1@
18
1A
1B
0B
#980000
0!
0/
00
#990000
1!
1/
10
1G
0H
11
#1000000
0!
0/
00
#1010000
1!
1/
10
1H
13
02
01
#1020000
0!
0/
00
#1030000
1!
1/
10
1F
0G
0H
11
#1040000
0!
0/
00
#1050000
1!
1/
10
1H
12
01
#1060000
0!
0/
00
#1070000
1!
1/
10
1G
0H
11
#1080000
0!
0/
00
#1090000
1!
1/
10
1H
03
02
01
#1100000
0!
0/
00
#1110000
1!
1/
10
0F
0G
0H
04
11
05
#1120000
0!
0/
00
#1130000
1!
1/
10
1H
06
07
0.
0$
12
01
#1140000
0!
0/
00
#1150000
1!
1/
10
1G
0H
11
#1160000
0!
0/
00
#1170000
1!
1/
10
1H
13
02
01
#1180000
0!
0/
00
#1190000
1!
1/
10
1F
0G
0H
11
#1200000
0!
0/
00
#1210000
1!
1/
10
1H
12
01
#1220000
0!
0/
00
#1230000
1!
1/
10
1G
0H
11
#1240000
0!
0/
00
#1250000
1!
1/
10
1H
03
02
01
#1260000
0!
0/
00
#1270000
1!
1/
10
0F
0G
0H
14
11
15
#1280000
0!
0/
00
#1290000
1!
1/
10
1H
16
17
1.
1$
12
01
1L
19
08
#1300000
0!
0/
00
#1310000
1!
1/
10
1G
0H
11
#1320000
0!
0/
00
#1330000
1!
1/
10
1H
13
02
01
#1340000
0!
0/
00
#1350000
1!
1/
10
1F
0G
0H
11
#1360000
0!
0/
00
#1370000
1!
1/
10
1H
12
01
#1380000
0!
0/
00
#1390000
1!
1/
10
1G
0H
11
#1400000
0!
0/
00
#1410000
1!
1/
10
1H
03
02
01
#1420000
0!
0/
00
#1430000
1!
1/
10
0F
0G
0H
04
11
05
#1440000
0!
0/
00
#1450000
1!
1/
10
1H
06
07
0.
0$
12
01
#1460000
0!
0/
00
#1470000
1!
1/
10
1G
0H
11
#1480000
0!
0/
00
#1490000
1!
1/
10
1H
13
02
01
#1500000
0!
0/
00
#1510000
1!
1/
10
1F
0G
0H
11
#1520000
0!
0/
00
#1530000
1!
1/
10
1H
12
01
#1540000
0!
0/
00
#1550000
1!
1/
10
1G
0H
11
#1560000
0!
0/
00
#1570000
1!
1/
10
1H
03
02
01
#1580000
0!
0/
00
#1590000
1!
1/
10
0F
0G
0H
14
11
15
#1600000
0!
0/
00
#1610000
1!
1/
10
1H
16
17
1.
1$
12
01
1K
0L
18
#1620000
0!
0/
00
#1630000
1!
1/
10
1G
0H
11
#1640000
0!
0/
00
#1650000
1!
1/
10
1H
13
02
01
#1660000
0!
0/
00
#1670000
1!
1/
10
1F
0G
0H
11
#1680000
0!
0/
00
#1690000
1!
1/
10
1H
12
01
#1700000
0!
0/
00
#1710000
1!
1/
10
1G
0H
11
#1720000
0!
0/
00
#1730000
1!
1/
10
1H
03
02
01
#1740000
0!
0/
00
#1750000
1!
1/
10
0F
0G
0H
04
11
05
#1760000
0!
0/
00
#1770000
1!
1/
10
1H
06
07
0.
0$
12
01
#1780000
0!
0/
00
#1790000
1!
1/
10
1G
0H
11
#1800000
0!
0/
00
#1810000
1!
1/
10
1H
13
02
01
#1820000
0!
0/
00
#1830000
1!
1/
10
1F
0G
0H
11
#1840000
0!
0/
00
#1850000
1!
1/
10
1H
12
01
#1860000
0!
0/
00
#1870000
1!
1/
10
1G
0H
11
#1880000
0!
0/
00
#1890000
1!
1/
10
1H
03
02
01
#1900000
0!
0/
00
#1910000
1!
1/
10
0F
0G
0H
14
11
15
#1920000
0!
0/
00
#1930000
1!
1/
10
1H
16
17
1.
1$
12
01
1L
0@
1;
0:
09
08
0A
1B
#1940000
0!
0/
00
#1950000
1!
1/
10
1G
0H
11
#1960000
0!
0/
00
#1970000
1!
1/
10
1H
13
02
01
#1980000
0!
0/
00
#1990000
1!
1/
10
1F
0G
0H
11
#2000000
0!
0/
00
#2010000
1!
1/
10
1H
12
01
#2020000
0!
0/
00
#2030000
1!
1/
10
1G
0H
11
#2040000
0!
0/
00
#2050000
1!
1/
10
1H
03
02
01
#2060000
0!
0/
00
#2070000
1!
1/
10
0F
0G
0H
04
11
05
#2080000
0!
0/
00
#2090000
1!
1/
10
1H
06
07
0.
0$
12
01
#2100000
0!
0/
00
#2110000
1!
1/
10
1G
0H
11
#2120000
0!
0/
00
#2130000
1!
1/
10
1H
13
02
01
#2140000
0!
0/
00
#2150000
1!
1/
10
1F
0G
0H
11
#2160000
0!
0/
00
#2170000
1!
1/
10
1H
12
01
#2180000
0!
0/
00
#2190000
1!
1/
10
1G
0H
11
#2200000
0!
0/
00
#2210000
1!
1/
10
1H
03
02
01
#2220000
0!
0/
00
#2230000
1!
1/
10
0F
0G
0H
14
11
15
#2240000
0!
0/
00
#2250000
1!
1/
10
1H
16
17
1.
1$
12
01
1C
1I
0J
0K
0L
0,
1A
1@
0%
0D
18
#2260000
0!
0/
00
#2270000
1!
1/
10
1G
0H
11
#2280000
0!
0/
00
#2290000
1!
1/
10
1H
13
02
01
#2300000
0!
0/
00
#2310000
1!
1/
10
1F
0G
0H
11
#2320000
0!
0/
00
#2330000
1!
1/
10
1H
12
01
#2340000
0!
0/
00
#2350000
1!
1/
10
1G
0H
11
#2360000
0!
0/
00
#2370000
1!
1/
10
1H
03
02
01
#2380000
0!
0/
00
#2390000
1!
1/
10
0F
0G
0H
04
11
05
#2400000
0!
0/
00
#2410000
1!
1/
10
1H
06
07
0.
0$
12
01
#2420000
0!
0/
00
#2430000
1!
1/
10
1G
0H
11
#2440000
0!
0/
00
#2450000
1!
1/
10
1H
13
02
01
#2460000
0!
0/
00
#2470000
1!
1/
10
1F
0G
0H
11
#2480000
0!
0/
00
#2490000
1!
1/
10
1H
12
01
#2500000
0!
0/
00
#2510000
1!
1/
10
1G
0H
11
#2520000
0!
0/
00
#2530000
1!
1/
10
1H
03
02
01
#2540000
0!
0/
00
#2550000
1!
1/
10
0F
0G
0H
14
11
15
#2560000
0!
0/
00
#2570000
1!
1/
10
1H
16
17
1.
1$
12
01
1L
0E
0-
0#
19
08
#2580000
0!
0/
00
#2590000
1!
1/
10
1G
0H
11
#2600000
0!
0/
00
#2610000
1!
1/
10
1H
13
02
01
#2620000
0!
0/
00
#2630000
1!
1/
10
1F
0G
0H
11
#2640000
0!
0/
00
#2650000
1!
1/
10
1H
12
01
#2660000
0!
0/
00
#2670000
1!
1/
10
1G
0H
11
#2680000
0!
0/
00
#2690000
1!
1/
10
1H
03
02
01
#2700000
0!
0/
00
#2710000
1!
1/
10
0F
0G
0H
04
11
05
#2720000
0!
0/
00
#2730000
1!
1/
10
1H
06
07
0.
0$
12
01
#2740000
0!
0/
00
#2750000
1!
1/
10
1G
0H
11
#2760000
0!
0/
00
#2770000
1!
1/
10
1H
13
02
01
#2780000
0!
0/
00
#2790000
1!
1/
10
1F
0G
0H
11
#2800000
0!
0/
00
#2810000
1!
1/
10
1H
12
01
#2820000
0!
0/
00
#2830000
1!
1/
10
1G
0H
11
#2840000
0!
0/
00
#2850000
1!
1/
10
1H
03
02
01
#2860000
0!
0/
00
#2870000
1!
1/
10
0F
0G
0H
14
11
15
#2880000
0!
0/
00
#2890000
1!
1/
10
1H
16
17
1.
1$
12
01
1K
0L
18
#2900000
0!
0/
00
#2910000
1!
1/
10
1G
0H
11
#2920000
0!
0/
00
#2930000
1!
1/
10
1H
13
02
01
#2940000
0!
0/
00
#2950000
1!
1/
10
1F
0G
0H
11
#2960000
0!
0/
00
#2970000
1!
1/
10
1H
12
01
#2980000
0!
0/
00
#2990000
1!
1/
10
1G
0H
11
#3000000
0!
0/
00
#3010000
1!
1/
10
1H
03
02
01
#3020000
0!
0/
00
#3030000
1!
1/
10
0F
0G
0H
04
11
05
#3040000
0!
0/
00
#3050000
1!
1/
10
1H
06
07
0.
0$
12
01
#3060000
0!
0/
00
#3070000
1!
1/
10
1G
0H
11
#3080000
0!
0/
00
#3090000
1!
1/
10
1H
13
02
01
#3100000
0!
0/
00
#3110000
1!
1/
10
1F
0G
0H
11
#3120000
0!
0/
00
#3130000
1!
1/
10
1H
12
01
#3140000
0!
0/
00
#3150000
1!
1/
10
1G
0H
11
#3160000
0!
0/
00
#3170000
1!
1/
10
1H
03
02
01
#3180000
0!
0/
00
#3190000
1!
1/
10
0F
0G
0H
14
11
15
#3200000
0!
0/
00
#3210000
1!
1/
10
1H
16
17
1.
1$
12
01
1L
0@
1:
09
08
#3220000
0!
0/
00
#3230000
1!
1/
10
1G
0H
11
#3240000
0!
0/
00
#3250000
1!
1/
10
1H
13
02
01
#3260000
0!
0/
00
#3270000
1!
1/
10
1F
0G
0H
11
#3280000
0!
0/
00
#3290000
1!
1/
10
1H
12
01
#3300000
0!
0/
00
#3310000
1!
1/
10
1G
0H
11
#3320000
0!
0/
00
#3330000
1!
1/
10
1H
03
02
01
#3340000
0!
0/
00
#3350000
1!
1/
10
0F
0G
0H
04
11
05
#3360000
0!
0/
00
#3370000
1!
1/
10
1H
06
07
0.
0$
12
01
#3380000
0!
0/
00
#3390000
1!
1/
10
1G
0H
11
#3400000
0!
0/
00
#3410000
1!
1/
10
1H
13
02
01
#3420000
0!
0/
00
#3430000
1!
1/
10
1F
0G
0H
11
#3440000
0!
0/
00
#3450000
1!
1/
10
1H
12
01
#3460000
0!
0/
00
#3470000
1!
1/
10
1G
0H
11
#3480000
0!
0/
00
#3490000
1!
1/
10
1H
03
02
01
#3500000
0!
0/
00
#3510000
1!
1/
10
0F
0G
0H
14
11
15
#3520000
0!
0/
00
#3530000
1!
1/
10
1H
16
17
1.
1$
12
01
1J
0K
0L
0A
1@
18
1A
#3540000
0!
0/
00
#3550000
1!
1/
10
1G
0H
11
#3560000
0!
0/
00
#3570000
1!
1/
10
1H
13
02
01
#3580000
0!
0/
00
#3590000
1!
1/
10
1F
0G
0H
11
#3600000
0!
0/
00
#3610000
1!
1/
10
1H
12
01
#3620000
0!
0/
00
#3630000
1!
1/
10
1G
0H
11
#3640000
0!
0/
00
#3650000
1!
1/
10
1H
03
02
01
#3660000
0!
0/
00
#3670000
1!
1/
10
0F
0G
0H
04
11
05
#3680000
0!
0/
00
#3690000
1!
1/
10
1H
06
07
0.
0$
12
01
#3700000
0!
0/
00
#3710000
1!
1/
10
1G
0H
11
#3720000
0!
0/
00
#3730000
1!
1/
10
1H
13
02
01
#3740000
0!
0/
00
#3750000
1!
1/
10
1F
0G
0H
11
#3760000
0!
0/
00
#3770000
1!
1/
10
1H
12
01
#3780000
0!
0/
00
#3790000
1!
1/
10
1G
0H
11
#3800000
0!
0/
00
#3810000
1!
1/
10
1H
03
02
01
#3820000
0!
0/
00
#3830000
1!
1/
10
0F
0G
0H
14
11
15
#3840000
0!
0/
00
#3850000
1!
1/
10
1H
16
17
1.
1$
12
01
1L
19
08
#3860000
0!
0/
00
#3870000
1!
1/
10
1G
0H
11
#3880000
0!
0/
00
#3890000
1!
1/
10
1H
13
02
01
#3900000
0!
0/
00
#3910000
1!
1/
10
1F
0G
0H
11
#3920000
0!
0/
00
#3930000
1!
1/
10
1H
12
01
#3940000
0!
0/
00
#3950000
1!
1/
10
1G
0H
11
#3960000
0!
0/
00
#3970000
1!
1/
10
1H
03
02
01
#3980000
0!
0/
00
#3990000
1!
1/
10
0F
0G
0H
04
11
05
#4000000
0!
0/
00
#4010000
1!
1/
10
1H
06
07
0.
0$
12
01
#4020000
0!
0/
00
#4030000
1!
1/
10
1G
0H
11
#4040000
0!
0/
00
#4050000
1!
1/
10
1H
13
02
01
#4060000
0!
0/
00
#4070000
1!
1/
10
1F
0G
0H
11
#4080000
0!
0/
00
#4090000
1!
1/
10
1H
12
01
#4100000
0!
0/
00
#4110000
1!
1/
10
1G
0H
11
#4120000
0!
0/
00
#4130000
1!
1/
10
1H
03
02
01
#4140000
0!
0/
00
#4150000
1!
1/
10
0F
0G
0H
14
11
15
#4160000
0!
0/
00
#4170000
1!
1/
10
1H
16
17
1.
1$
12
01
1K
0L
18
#4180000
0!
0/
00
#4190000
1!
1/
10
1G
0H
11
#4200000
0!
0/
00
#4210000
1!
1/
10
1H
13
02
01
#4220000
0!
0/
00
#4230000
1!
1/
10
1F
0G
0H
11
#4240000
0!
0/
00
#4250000
1!
1/
10
1H
12
01
#4260000
0!
0/
00
#4270000
1!
1/
10
1G
0H
11
#4280000
0!
0/
00
#4290000
1!
1/
10
1H
03
02
01
#4300000
0!
0/
00
#4310000
1!
1/
10
0F
0G
0H
04
11
05
#4320000
0!
0/
00
#4330000
1!
1/
10
1H
06
07
0.
0$
12
01
#4340000
0!
0/
00
#4350000
1!
1/
10
1G
0H
11
#4360000
0!
0/
00
#4370000
1!
1/
10
1H
13
02
01
#4380000
0!
0/
00
#4390000
1!
1/
10
1F
0G
0H
11
#4400000
0!
0/
00
#4410000
1!
1/
10
1H
12
01
#4420000
0!
0/
00
#4430000
1!
1/
10
1G
0H
11
#4440000
0!
0/
00
#4450000
1!
1/
10
1H
03
02
01
#4460000
0!
0/
00
#4470000
1!
1/
10
0F
0G
0H
14
11
15
#4480000
0!
0/
00
#4490000
1!
1/
10
1H
16
17
1.
1$
12
01
1L
0@
0;
0:
09
08
0A
#4500000
0!
0/
00
#4510000
1!
1/
10
1G
0H
11
#4520000
0!
0/
00
#4530000
1!
1/
10
1H
13
02
01
#4540000
0!
0/
00
#4550000
1!
1/
10
1F
0G
0H
11
#4560000
0!
0/
00
#4570000
1!
1/
10
1H
12
01
#4580000
0!
0/
00
#4590000
1!
1/
10
1G
0H
11
#4600000
0!
0/
00
#4610000
1!
1/
10
1H
03
02
01
#4620000
0!
0/
00
#4630000
1!
1/
10
0F
0G
0H
04
11
05
#4640000
0!
0/
00
#4650000
1!
1/
10
1H
06
07
0.
0$
12
01
#4660000
0!
0/
00
#4670000
1!
1/
10
1G
0H
11
#4680000
0!
0/
00
#4690000
1!
1/
10
1H
13
02
01
#4700000
0!
0/
00
#4710000
1!
1/
10
1F
0G
0H
11
#4720000
0!
0/
00
#4730000
1!
1/
10
1H
12
01
#4740000
0!
0/
00
#4750000
1!
1/
10
1G
0H
11
#4760000
0!
0/
00
#4770000
1!
1/
10
1H
03
02
01
#4780000
0!
0/
00
#4790000
1!
1/
10
0F
0G
0H
14
11
15
#4800000
0!
0/
00
#4810000
1!
1/
10
1H
16
17
1.
1$
12
01
0I
0J
0K
0L
1A
1@
1D
18
0B
#4820000
0!
0/
00
#4830000
1!
1/
10
1G
0H
11
#4840000
0!
0/
00
#4850000
1!
1/
10
1H
13
02
01
#4860000
0!
0/
00
#4870000
1!
1/
10
1F
0G
0H
11
#4880000
0!
0/
00
#4890000
1!
1/
10
1H
12
01
#4900000
0!
0/
00
#4910000
1!
1/
10
1G
0H
11
#4920000
0!
0/
00
#4930000
1!
1/
10
1H
03
02
01
#4940000
0!
0/
00
#4950000
1!
1/
10
0F
0G
0H
04
11
05
#4960000
0!
0/
00
#4970000
1!
1/
10
1H
06
07
0.
0$
12
01
#4980000
0!
0/
00
#4990000
1!
1/
10
1G
0H
11
#5000000
0!
0/
00
#5010000
1!
1/
10
1H
13
02
01
#5020000
0!
0/
00
#5030000
1!
1/
10
1F
0G
0H
11
#5040000
0!
0/
00
#5050000
1!
1/
10
1H
12
01
#5060000
0!
0/
00
#5070000
1!
1/
10
1G
0H
11
#5080000
0!
0/
00
#5090000
1!
1/
10
1H
03
02
01
#5100000
0!
0/
00
#5110000
1!
1/
10
0F
0G
0H
14
11
15
#5120000
0!
0/
00
#5128000
b1111 "
b1110 "
0?
1<
#5130000
1!
1/
10
1H
16
17
1.
1$
12
01
0C
1L
1E
1-
1,
1%
1#
19
08
#5140000
0!
0/
00
#5150000
1!
1/
10
1G
0H
11
#5160000
0!
0/
00
#5170000
1!
1/
10
1H
13
02
01
#5180000
0!
0/
00
#5190000
1!
1/
10
1F
0G
0H
11
#5200000
0!
0/
00
#5210000
1!
1/
10
1H
12
01
#5220000
0!
0/
00
#5230000
1!
1/
10
1G
0H
11
#5240000
0!
0/
00
#5250000
1!
1/
10
1H
03
02
01
#5260000
0!
0/
00
#5270000
1!
1/
10
0F
0G
0H
04
11
05
#5280000
0!
0/
00
#5290000
1!
1/
10
1H
06
07
0.
0$
12
01
#5300000
0!
0/
00
#5310000
1!
1/
10
1G
0H
11
#5320000
0!
0/
00
#5330000
1!
1/
10
1H
13
02
01
#5340000
0!
0/
00
#5350000
1!
1/
10
1F
0G
0H
11
#5360000
0!
0/
00
#5370000
1!
1/
10
1H
12
01
#5380000
0!
0/
00
#5390000
1!
1/
10
1G
0H
11
#5400000
0!
0/
00
#5410000
1!
1/
10
1H
03
02
01
#5420000
0!
0/
00
#5430000
1!
1/
10
0F
0G
0H
14
11
15
#5440000
0!
0/
00
#5450000
1!
1/
10
1H
16
17
1.
1$
12
01
1K
0L
0@
18
#5460000
0!
0/
00
#5470000
1!
1/
10
1G
0H
11
#5480000
0!
0/
00
#5490000
1!
1/
10
1H
13
02
01
#5500000
0!
0/
00
#5510000
1!
1/
10
1F
0G
0H
11
#5520000
0!
0/
00
#5530000
1!
1/
10
1H
12
01
#5540000
0!
0/
00
#5550000
1!
1/
10
1G
0H
11
#5560000
0!
0/
00
#5570000
1!
1/
10
1H
03
02
01
#5580000
0!
0/
00
#5590000
1!
1/
10
0F
0G
0H
04
11
05
#5600000
0!
0/
00
#5610000
1!
1/
10
1H
06
07
0.
0$
12
01
#5620000
0!
0/
00
#5630000
1!
1/
10
1G
0H
11
#5640000
0!
0/
00
#5650000
1!
1/
10
1H
13
02
01
#5660000
0!
0/
00
#5670000
1!
1/
10
1F
0G
0H
11
#5680000
0!
0/
00
#5690000
1!
1/
10
1H
12
01
#5700000
0!
0/
00
#5710000
1!
1/
10
1G
0H
11
#5720000
0!
0/
00
#5730000
1!
1/
10
1H
03
02
01
#5740000
0!
0/
00
#5750000
1!
1/
10
0F
0G
0H
14
11
15
#5760000
0!
0/
00
#5770000
1!
1/
10
1H
16
17
1.
1$
12
01
1L
1:
09
08
#5780000
0!
0/
00
#5790000
1!
1/
10
1G
0H
11
#5800000
0!
0/
00
#5810000
1!
1/
10
1H
13
02
01
#5820000
0!
0/
00
#5830000
1!
1/
10
1F
0G
0H
11
#5840000
0!
0/
00
#5850000
1!
1/
10
1H
12
01
#5860000
0!
0/
00
#5870000
1!
1/
10
1G
0H
11
#5880000
0!
0/
00
#5890000
1!
1/
10
1H
03
02
01
#5900000
0!
0/
00
#5910000
1!
1/
10
0F
0G
0H
04
11
05
#5920000
0!
0/
00
#5930000
1!
1/
10
1H
06
07
0.
0$
12
01
#5940000
0!
0/
00
#5950000
1!
1/
10
1G
0H
11
#5960000
0!
0/
00
#5970000
1!
1/
10
1H
13
02
01
#5980000
0!
0/
00
#5990000
1!
1/
10
1F
0G
0H
11
#6000000
0!
0/
00
#6010000
1!
1/
10
1H
12
01
#6020000
0!
0/
00
#6030000
1!
1/
10
1G
0H
11
#6040000
0!
0/
00
#6050000
1!
1/
10
1H
03
02
01
#6060000
0!
0/
00
#6070000
1!
1/
10
0F
0G
0H
14
11
15
#6080000
0!
0/
00
#6090000
1!
1/
10
1H
16
17
1.
1$
12
01
1J
0K
0L
0A
1@
18
1A
#6100000
0!
0/
00
#6110000
1!
1/
10
1G
0H
11
#6120000
0!
0/
00
#6130000
1!
1/
10
1H
13
02
01
#6140000
0!
0/
00
#6150000
1!
1/
10
1F
0G
0H
11
#6160000
0!
0/
00
#6170000
1!
1/
10
1H
12
01
#6180000
0!
0/
00
#6190000
1!
1/
10
1G
0H
11
#6200000
0!
0/
00
#6210000
1!
1/
10
1H
03
02
01
#6220000
0!
0/
00
#6230000
1!
1/
10
0F
0G
0H
04
11
05
#6240000
0!
0/
00
#6250000
1!
1/
10
1H
06
07
0.
0$
12
01
#6260000
0!
0/
00
#6270000
1!
1/
10
1G
0H
11
#6280000
0!
0/
00
#6290000
1!
1/
10
1H
13
02
01
#6300000
0!
0/
00
#6310000
1!
1/
10
1F
0G
0H
11
#6320000
0!
0/
00
#6330000
1!
1/
10
1H
12
01
#6340000
0!
0/
00
#6350000
1!
1/
10
1G
0H
11
#6360000
0!
0/
00
#6370000
1!
1/
10
1H
03
02
01
#6380000
0!
0/
00
#6390000
1!
1/
10
0F
0G
0H
14
11
15
#6400000
0!
0/
00
#6410000
1!
1/
10
1H
16
17
1.
1$
12
01
1L
19
08
#6420000
0!
0/
00
#6430000
1!
1/
10
1G
0H
11
#6440000
0!
0/
00
#6450000
1!
1/
10
1H
13
02
01
#6460000
0!
0/
00
#6470000
1!
1/
10
1F
0G
0H
11
#6480000
0!
0/
00
#6490000
1!
1/
10
1H
12
01
#6500000
0!
0/
00
#6510000
1!
1/
10
1G
0H
11
#6520000
0!
0/
00
#6530000
1!
1/
10
1H
03
02
01
#6540000
0!
0/
00
#6550000
1!
1/
10
0F
0G
0H
04
11
05
#6560000
0!
0/
00
#6570000
1!
1/
10
1H
06
07
0.
0$
12
01
#6580000
0!
0/
00
#6590000
1!
1/
10
1G
0H
11
#6600000
0!
0/
00
#6610000
1!
1/
10
1H
13
02
01
#6620000
0!
0/
00
#6630000
1!
1/
10
1F
0G
0H
11
#6640000
0!
0/
00
#6650000
1!
1/
10
1H
12
01
#6660000
0!
0/
00
#6670000
1!
1/
10
1G
0H
11
#6680000
0!
0/
00
#6690000
1!
1/
10
1H
03
02
01
#6700000
0!
0/
00
#6710000
1!
1/
10
0F
0G
0H
14
11
15
#6720000
0!
0/
00
#6730000
1!
1/
10
1H
16
17
1.
1$
12
01
1K
0L
0@
18
0A
#6740000
0!
0/
00
#6750000
1!
1/
10
1G
0H
11
#6760000
0!
0/
00
#6770000
1!
1/
10
1H
13
02
01
#6780000
0!
0/
00
#6790000
1!
1/
10
1F
0G
0H
11
#6800000
0!
0/
00
#6810000
1!
1/
10
1H
12
01
#6820000
0!
0/
00
#6830000
1!
1/
10
1G
0H
11
#6840000
0!
0/
00
#6850000
1!
1/
10
1H
03
02
01
#6860000
0!
0/
00
#6870000
1!
1/
10
0F
0G
0H
04
11
05
#6880000
0!
0/
00
#6890000
1!
1/
10
1H
06
07
0.
0$
12
01
#6900000
0!
0/
00
#6910000
1!
1/
10
1G
0H
11
#6920000
0!
0/
00
#6930000
1!
1/
10
1H
13
02
01
#6940000
0!
0/
00
#6950000
1!
1/
10
1F
0G
0H
11
#6960000
0!
0/
00
#6970000
1!
1/
10
1H
12
01
#6980000
0!
0/
00
#6990000
1!
1/
10
1G
0H
11
#7000000
0!
0/
00
#7010000
1!
1/
10
1H
03
02
01
#7020000
0!
0/
00
#7030000
1!
1/
10
0F
0G
0H
14
11
15
#7040000
0!
0/
00
#7050000
1!
1/
10
1H
16
17
1.
1$
12
01
1L
1;
0:
09
08
#7060000
0!
0/
00
#7070000
1!
1/
10
1G
0H
11
#7080000
0!
0/
00
#7090000
1!
1/
10
1H
13
02
01
#7100000
0!
0/
00
#7110000
1!
1/
10
1F
0G
0H
11
#7120000
0!
0/
00
#7130000
1!
1/
10
1H
12
01
#7140000
0!
0/
00
#7150000
1!
1/
10
1G
0H
11
#7160000
0!
0/
00
#7170000
1!
1/
10
1H
03
02
01
#7180000
0!
0/
00
#7190000
1!
1/
10
0F
0G
0H
04
11
05
#7200000
0!
0/
00
#7210000
1!
1/
10
1H
06
07
0.
0$
12
01
#7220000
0!
0/
00
#7230000
1!
1/
10
1G
0H
11
#7240000
0!
0/
00
#7250000
1!
1/
10
1H
13
02
01
#7260000
0!
0/
00
#7270000
1!
1/
10
1F
0G
0H
11
